Chapter 4 Landuse.lum update | OPTAIN CS-10
…
When arranged by field, we can see that every field gets one entry per
crop per year. This is a good format to count how many times we have a
certain type of crop on a field.

Next we group_by the field – this means all the following
operations will be done on a field basis. Then we filter our value
(which is the crop name). For conventional we needed to filter in any
fields with the crop "wwht" or "pota".

What does this look like?

crop_rotation %>% melt(. ,"field") %>% group_by(field) %>%
  filter(value %in% c("wwht", "pota"))

## # A tibble: 1,519 × 3
## # Groups:   field [415]
##    field    variable value
##    <chr>    <fct>    <chr>
##  1 a_025f_1 y_2016   wwht 
##  2 a_025f_3 y_2016   wwht 
##  3 a_025f_4 y_2016   wwht 
##  4 a_025f_2 y_2016   wwht 
##  5 a_105f_1 y_2016   wwht 
##  6 a_105f_4 y_2016   wwht 
##  7 a_105f_2 y_2016   wwht 
##  8 a_105f_3 y_2016   wwht 
##  9 a_187f_1 y_2016   wwht 
## 10 a_206f_1 y_2016   wwht 
## # ℹ 1,509 more rows
…
