Section 11 Model Verification | OPTAIN CS-10
…
veri_mgt <- readRDS("model_data/swat_doctR/verification_runs/veri_mgt.rds")
mgt_report <- report_mgt(veri_mgt, write_report = TRUE)

## Management OK! No differences between scheduled and triggered managments identified.

Seems like there are no issues.

print_triggered_mgt(sim_verify = veri_mgt, hru_id = 92)

## Triggered managament for
##   hru:        92 
##   management: a_007f_1_drn_mgt_92_1

## # A tibble: 37 × 7
##     year   mon   day phuplant operation op_data1 op_data3
##    <dbl> <dbl> <dbl>    <dbl> <chr>     <chr>       <dbl>
##  1  2016     5    12   0      TILLAGE   harrow          0
##  2  2016     5    15   0      FERT      elem_n         96
##  3  2016     5    15   0      FERT      elem_p          0
##  4  2016     5    15   0      PLANT     oats            0
##  5  2016     5    17   0.0200 TILLAGE   rowcult         0
##  6  2016     6    20   0.520  FERT      elem_n         38
##  7  2016     6    20   0.520  FERT      elem_p          0
##  8  2016     8     8   1.32   HARVEST   oats            0
##  9  2016     8     8   0      KILL      oats            0
## 10  2016    10     8   0      PLANT     wwht            0
## # ℹ 27 more rows

Sooo hows it looking?

test <- get_hru_id_by_attribute(veri_mgt, mgt = "a_001f_1_drn_mgt_1731_1")

print_triggered_mgt(sim_verify = veri_mgt, hru_id = test$id[1])

## Triggered managament for
##   hru:        1731 
##   management: a_001f_1_drn_mgt_1731_1

## # A tibble: 40 × 7
##     year   mon   day phuplant operation op_data1 op_data3
##    <dbl> <dbl> <dbl>    <dbl> <chr>     <chr>       <dbl>
##  1  2016     4    18   0.134  FERT      elem_n       79.1
##  2  2016     4    18   0.134  FERT      elem_p        0  
##  3  2016     5    13   0.250  FERT      elem_n       77.2
##  4  2016     5    13   0.250  FERT      elem_p        0  
##  5  2016     6    17   0.541  FERT      elem_n       34  
##  6  2016     6    17   0.541  FERT      elem_p        0  
##  7  2016     8     6   1.03   HARVEST   wwht          0  
##  8  2016     8     6   0      KILL      wwht          0  
##  9  2016     8    25   0      PLANT     wwht          0  
## 10  2016     8    26   0.0102 TILLAGE   rowcult       0  
## # ℹ 30 more rows
…
